{
  "project_info": {
    "project_number": "960143972329",
    "firebase_url": "https://thegoodseat-3aee0.firebaseio.com",
    "project_id": "thegoodseat-3aee0",
    "storage_bucket": "thegoodseat-3aee0.appspot.com"
  },
  "client": [
    {
      "client_info": {
        "mobilesdk_app_id": "1:960143972329:android:0c782a60b5933b02",
        "android_client_info": {
          "package_name": "com.thegoodseat"
        }
      },
      "oauth_client": [
        {
          "client_id": "960143972329-3c0tkl5hsffsad404ge3l1qu2ehmjr03.apps.googleusercontent.com",
          "client_type": 1,
          "android_info": {
            "package_name": "com.thegoodseat",
            "certificate_hash": "5ec6ab11e6e4fef184838fdcbdef6229d4671288"
          }
        },
        {
          "client_id": "960143972329-3f9ib33kpbhjbfe0q6ol1okqmqsek0uu.apps.googleusercontent.com",
          "client_type": 1,
          "android_info": {
            "package_name": "com.thegoodseat",
            "certificate_hash": "ba9ba3cd6c5daa7916fbf5994f533fe68e703b5e"
          }
        },
        {
          "client_id": "960143972329-ep71lp4nbs17juj55tf18flkpu988idk.apps.googleusercontent.com",
          "client_type": 1,
          "android_info": {
            "package_name": "com.thegoodseat",
            "certificate_hash": "cb407d9aa78a647a51cba86213b3e9beb07f814a"
          }
        },
        {
          "client_id": "960143972329-er08i5a2uq0jk8uf09fh6u5551k7ma7e.apps.googleusercontent.com",
          "client_type": 1,
          "android_info": {
            "package_name": "com.thegoodseat",
            "certificate_hash": "acf216ed5ede9e77c838a7162d330592a57af33f"
          }
        },
        {
          "client_id": "960143972329-1vnb7sb1ied2i2gk8bc5p0kih0hb1b2o.apps.googleusercontent.com",
          "client_type": 3
        }
      ],
      "api_key": [
        {
          "current_key": "AIzaSyBggTkj3-CDlEAgwxKIKSc6xN5emdDaFEY"
        }
      ],
      "services": {
        "analytics_service": {
          "status": 1
        },
        "appinvite_service": {
          "status": 2,
          "other_platform_oauth_client": [
            {
              "client_id": "960143972329-1vnb7sb1ied2i2gk8bc5p0kih0hb1b2o.apps.googleusercontent.com",
              "client_type": 3
            },
            {
              "client_id": "960143972329-ih3ges67p4nc9l6ciqsai99avh4oo38k.apps.googleusercontent.com",
              "client_type": 2,
              "ios_info": {
                "bundle_id": "com.thegoodseat.app"
              }
            }
          ]
        },
        "ads_service": {
          "status": 2
        }
      }
    }
  ],
  "configuration_version": "1"
}